{
    "type": "service_account",
    "project_id": "genrify-f159e",
    "private_key_id": "caa8ed67ee1988684479068c274ee19a7e0042b4",
    "private_key": "-----BEGIN PRIVATE KEY-----\nMIIEvgIBADANBgkqhkiG9w0BAQEFAASCBKgwggSkAgEAAoIBAQCWhpCCNxczv+1c\nofLykiDFYhOt5IajvEuuU+0gd12/nFTpik3DNcrbnSYhC6dn1LqGvHo6KNlT8V3O\nwT+Vuuzeo0nPNj0YDwCDqY9s8NaD4XO3lP3sDhQ2ToWadC36v2lZvYJd3skXAZ60\nye/4aMk6XopeCdXg9t4JP5BwSU2wTkCxdXr6pLWgx4w31+jn6A8zUM/DtDT31r8f\n6NnL+XQA7Et/Weql/OlZrlLgnwahRR57Jd93n2AyF3F61iNM0uVJG7tyr2U/gpNH\nhcUAYHBtmUE8IfLQaz6xKMqsEq9aWf+VopgHn7cjT54n0b8s1ontLpN2x6dN+k5v\nogBPlmM5AgMBAAECggEAAd78FJxH8e0ar5Y1QYHivaVbkoOmz0n3xFvXdJn7PLae\nIRWGpCyq3/o29z3wd6RPqb1VxRuNIQOc64UgK9WqHFXaBOT7Ey2bj2doCJ4BQpwm\nrrNfySN/KZImC76SND3VGsgV4uISLJKo9P0WGie+SZcTf/n+EjjrV2DWhCjLGgwI\nFOMsaIW5kLAlHbXyfaSUn50urRSCwj3Ogxip86Eosq7K7QqVCs4OSXXqHLEXTD15\n2oqNfB3YYpEfgqgwoNQBtVd7/SYXyE8wLZD7606PDtb0vspj6kMg61nGLNrEn/nZ\n2FDTBuPwC4ViTLdXNNwX026OsyNoUUP2CYuKHhfBUQKBgQDJLBV+Ni0jgzTtgQmJ\n5IYQ837eQnoT4+QHjUp/Ix4NreLOpHTSXQm66bw9YJvsGT6Bit6Qq1sNuVwuG0ED\nzhbbfnn+/TuGiNc/FSEp2hYCwEzs+XnOWzjAZLdvyO0j4TVNdItme0/Meh71I+zB\nagjhtRSCYynqM+pxNSkyaPakaQKBgQC/jNZAMTJeLEbUBpFXo6Fjkx6R2XlYWMnm\n8BfqnTHfwU3h8LGb/kiXMmf8P2h+UjPB+dp9Ivnh6tfB7hzewLmXXyywq/M+USyR\n/F5ncRchJgHI46t+zCdRzHrugecNxehgNqR2Gyb3SIopUVBzlTiGJ2eHSvhMHK9U\n/zXvScWuUQKBgQCZ9jg40OO48xjV0FTpiNEmNgTZu4zMnjQNp4/lP44nr/YOaoTR\n3syslWgwnTiX+DYDVLHDjLFyDnPDAa6/Z8HMmL5rbYlaDG6X4+bure78igoVr1UO\nnngPnsVZMzByrlBqCBEMDMHk323D9Yuj9y/29exNYfFZQgRiQepWn0hsSQKBgQCw\nEvO2mgJkkmqg51CesKjfcRK+mptyXFtrTvONE+YOeg/vSmLYs4tigFEZi+evhjxR\naCwwrv/nbQnbF9et4pY20KOx2r2DYPaJUuQsTcYnEFq/oJe5vEvAYyf1Ka+L94m9\nNz1B23+b+zAU/svnExmcJ4iA0qcev5djmByp0rRFoQKBgAtQvMVNyc0MVupU44lc\n8Qh1NfKC2k+gwSqr8yYzPRyvh9AR4R0eXiXCL0TswMht07qzPQJjx0INKuTQmyI5\nSk6sxCtHTGAhvHeiVEDRikWJTfUxaZCZr7Oz9e0IOqZx0wlODLudjYKryjBBopnw\nMlCB3plV0Xw9t4WNXAdx0TNA\n-----END PRIVATE KEY-----\n",
    "client_email": "firebase-adminsdk-jh8ov@genrify-f159e.iam.gserviceaccount.com",
    "client_id": "106574401470258398343",
    "auth_uri": "https://accounts.google.com/o/oauth2/auth",
    "token_uri": "https://oauth2.googleapis.com/token",
    "auth_provider_x509_cert_url": "https://www.googleapis.com/oauth2/v1/certs",
    "client_x509_cert_url": "https://www.googleapis.com/robot/v1/metadata/x509/firebase-adminsdk-jh8ov%40genrify-f159e.iam.gserviceaccount.com"
}
  